<svg xmlns="http://www.w3.org/2000/svg" width="211.432" height="349.871" viewBox="0 0 211.432 349.871">
  <g id="Group_1507" data-name="Group 1507" transform="translate(-77 -3203.49)">
    <g id="Group_1504" data-name="Group 1504" transform="translate(77 3203.49)">
      <g id="Group_1477" data-name="Group 1477" transform="translate(0.001 0)">
        <path id="Path_2340" data-name="Path 2340" d="M151.078,965.694H116.367c-3.621-6.089-10.2-9.541-19.084-9.541-16.285,0-26.157,11.35-26.157,29.119,0,19.907,10.2,30.6,29.283,30.6,11.186,0,19.413-5.264,24.183-15.3H92.184V977.376h60.21v31.255c-6.909,16.946-24.839,35.7-55.111,35.7-35.533,0-58.9-24.348-58.9-59.06,0-34.547,23.2-58.9,58.732-58.9C126.4,926.374,146.472,941.511,151.078,965.694Z" transform="translate(-38.387 -926.374)" fill="#fff"/>
        <path id="Path_2341" data-name="Path 2341" d="M145.453,926.878c28.789,0,43.265,16.455,43.265,37.181,0,15.136-8.225,28.3-25.5,33.561l26.157,45.242H153.349l-23.032-42.774h-3.454v42.774H94.619V926.878Zm-2.634,26.982H126.863v24.184h15.956c8.721,0,13.162-4.277,13.162-12.176C155.981,958.632,151.539,953.861,142.819,953.861Z" transform="translate(22.055 -925.729)" fill="#fff"/>
      </g>
      <path id="Path_2342" data-name="Path 2342" d="M191.46,989.827H164.787l-4.055,12.268H138.754l27.419-75.217h24.112l27.311,75.217H195.513ZM178.123,949.5l-8,24.325h16.11Z" transform="translate(-138.754 -794.501)" fill="#fff"/>
      <path id="Path_2343" data-name="Path 2343" d="M263.654,964.182c0,21.766-15.257,37.661-39.261,37.661H194.627V926.626h29.767C248.4,926.626,263.654,942.1,263.654,964.182Zm-40.861,19.2c12.056,0,19.631-6.828,19.631-19.2,0-12.483-7.574-19.417-19.631-19.417h-7.254v38.622Z" transform="translate(-117.748 -794.622)" fill="#fff"/>
      <path id="Path_2344" data-name="Path 2344" d="M247.331,926.626h20.8v43.638c0,7.786,3.52,12.7,11.416,12.7s11.628-4.909,11.628-12.7V926.626h20.912v43.638c0,21.443-14.937,32.326-32.967,32.326-18.139,0-31.793-10.883-31.793-32.326Z" transform="translate(-102.206 -790.314)" fill="#fff"/>
      <path id="Path_2345" data-name="Path 2345" d="M353.007,995.485H323.829l-4.434,13.42H295.354l29.994-82.279h26.375L381.6,1008.9H357.443Zm-14.589-44.116-8.752,26.608h17.623Z" transform="translate(-295.353 -701.553)" fill="#fff"/>
      <path id="Path_2346" data-name="Path 2346" d="M350.36,926.626h66.523v18.208h-21.94V1008.9H372.067V944.834H350.36Z" transform="translate(-277.905 -701.553)" fill="#fff"/>
      <path id="Path_2347" data-name="Path 2347" d="M449.289,944.951H419.53v13.42h26.258V975.76H419.53v14.822h29.759V1008.9H396.656V926.626h52.633Z" transform="translate(-256.159 -701.553)" fill="#fff"/>
    </g>
    <g id="Group_1505" data-name="Group 1505" transform="translate(84 3523.948)">
      <path id="Path_2348" data-name="Path 2348" d="M1085.97,654.484c0,8.3-5.817,14.36-14.97,14.36h-11.349v-28.68H1071C1080.153,640.164,1085.97,646.063,1085.97,654.484Zm-15.581,7.322c4.6,0,7.485-2.6,7.485-7.322,0-4.76-2.888-7.4-7.485-7.4h-2.766v14.727Z" transform="translate(-1059.651 -639.717)" fill="#fff"/>
      <path id="Path_2349" data-name="Path 2349" d="M1112.569,640.164h7.974v28.68h-7.974Z" transform="translate(-1085.747 -639.717)" fill="#fff"/>
      <path id="Path_2350" data-name="Path 2350" d="M1147.315,640.164c7.12,0,10.7,4.068,10.7,9.194a8.326,8.326,0,0,1-6.306,8.3l6.468,11.187h-8.909l-5.7-10.577h-.853v10.577h-7.974v-28.68Zm-.651,6.672h-3.945v5.98h3.945c2.156,0,3.255-1.058,3.255-3.011C1149.919,648.016,1148.82,646.836,1146.664,646.836Z" transform="translate(-1098.47 -639.717)" fill="#fff"/>
      <path id="Path_2351" data-name="Path 2351" d="M1200.684,646.551H1190.31v4.678h9.153v6.061h-9.153v5.166h10.374v6.387h-18.347v-28.68h18.347Z" transform="translate(-1122.63 -639.717)" fill="#fff"/>
      <path id="Path_2352" data-name="Path 2352" d="M1234.343,639.66c7.2,0,12.326,4.15,13.75,10.658h-8.583a5.609,5.609,0,0,0-5.289-3.336c-3.661,0-6.061,2.848-6.061,7.241,0,4.434,2.4,7.282,6.061,7.282a5.608,5.608,0,0,0,5.289-3.335h8.583c-1.424,6.509-6.55,10.658-13.75,10.658-8.624,0-14.278-6.021-14.278-14.6C1220.065,645.681,1225.719,639.66,1234.343,639.66Z" transform="translate(-1142.011 -639.497)" fill="#fff"/>
      <path id="Path_2353" data-name="Path 2353" d="M1273.56,640.164h23.188v6.346H1289.1v22.334h-7.973V646.51h-7.566Z" transform="translate(-1169.896 -639.717)" fill="#fff"/>
      <path id="Path_2354" data-name="Path 2354" d="M1332.853,668.784a14.706,14.706,0,1,1,14.686-14.727A14.42,14.42,0,0,1,1332.853,668.784Zm0-7.4c4.109,0,6.591-2.888,6.591-7.322,0-4.515-2.481-7.363-6.591-7.363-4.149,0-6.59,2.848-6.59,7.363C1326.263,658.492,1328.7,661.38,1332.853,661.38Z" transform="translate(-1195.435 -639.372)" fill="#fff"/>
      <path id="Path_2355" data-name="Path 2355" d="M1389.089,640.164c7.119,0,10.7,4.068,10.7,9.194a8.325,8.325,0,0,1-6.305,8.3l6.468,11.187h-8.909l-5.7-10.577h-.854v10.577h-7.973v-28.68Zm-.651,6.672h-3.946v5.98h3.946c2.156,0,3.254-1.058,3.254-3.011C1391.692,648.016,1390.594,646.836,1388.438,646.836Z" transform="translate(-1225.45 -639.717)" fill="#fff"/>
      <path id="Path_2356" data-name="Path 2356" d="M1420.366,640.164h9.112l5.044,11.065,5.045-11.065h8.99l-10.089,19.568v9.112h-8.013v-9.112Z" transform="translate(-1250.676 -639.431)" fill="#fff"/>
    </g>
  </g>
</svg>
