<svg xmlns="http://www.w3.org/2000/svg" xmlns:xlink="http://www.w3.org/1999/xlink" width="103.116" height="76" viewBox="0 0 103.116 76">
  <defs>
    <clipPath id="clip-path">
      <rect id="Rectangle_353" data-name="Rectangle 353" width="76" height="76" fill="none"/>
    </clipPath>
  </defs>
  <g id="Convocation-2021-logo" transform="translate(-2)">
    <rect id="Rectangle_352" data-name="Rectangle 352" width="76" height="76" transform="translate(29.116)" fill="#5f2667"/>
    <g id="Group_1432" data-name="Group 1432" transform="translate(29.116)" clip-path="url(#clip-path)">
      <g id="Group_1431" data-name="Group 1431" transform="translate(-24.319 -25.919)" opacity="0.1">
        <path id="Path_2186" data-name="Path 2186" d="M33.124-90.112A72.881,72.881,0,0,0,18.615-77.055l5.169.365s1.719-1.178,2.177,0a1.8,1.8,0,0,1-.726,2l-3.718.092,1.906,1.268-2.631,3.353.09,5.259c0,1,2.448,2.364,2.448,2.364a20.912,20.912,0,0,0,4.988,1.36c1.55,0,6.983-.817,10.428-.907s3.174,3.628,3.174,3.628a9.212,9.212,0,0,0-4.442-1.82c-2.811-.363-8.616-.273-10.43.271-1.814.645-4.9-.817-4.9-.817-2.448,2.45-2.087,5.9.271,8.343,2.364,2.364,7.709,2,10.974.273,3.265-1.814,7.163,0,7.163,0a25.287,25.287,0,0,1-10.791,3.9c-5.079,1.09-8.8-.363-11.154-4.262-.544-2.721.363-5.713,2.721-9.067a23.967,23.967,0,0,0-2.364-2.54c-.544-.453-.817-3.718-1.087-4.533s-1.9-3.991-1.9-3.991c-1.36-2.177-1.27-4.083.181-5.893A98.944,98.944,0,0,1,31.4-91.2c-.907-3.082.271-5.713,3.439-8.07l7.266-4.715c3.811-11.427,11.245-16.957,22.218-16.6-11.788,2.631-17.954,8.433-18.59,17.408-9.886,4.9-14.146,9.242-12.6,13.056" transform="translate(-15.014 120.597)" fill="#cda7ce"/>
        <path id="Path_2187" data-name="Path 2187" d="M130.684,19.24l-7.163-1.36a16.7,16.7,0,0,1-2.721,6.166c3.174-2.628,6.166-3.628,9.07-2.992Z" transform="translate(-98.065 11.881)" fill="#cda7ce"/>
        <path id="Path_2188" data-name="Path 2188" d="M151.7,39.606q-16.6,18.363-12.786,43.257c.645-11.881,3.355-21.4,10.065-34.46,1.081-2.177,15.4-21.945,15.4-21.945l-8.977,9.16c.453-4.354,3.439-10.338,8.706-18.137-1.352-10.247-4.436-16.418-9.424-18.59,3.892,4.262,6.256,10.791,6.9,19.768-6.166,6.258-9.431,13.241-9.886,20.948" transform="translate(-111.724 26.79)" fill="#cda7ce"/>
        <path id="Path_2189" data-name="Path 2189" d="M276.261-59.286c2.261-10.791.542-16.686-5.261-17.774,4.352,3.265,5.078,8.167,2.364,14.692Z" transform="translate(-215.984 86.417)" fill="#cda7ce"/>
        <path id="Path_2190" data-name="Path 2190" d="M335.57-59.34a28.045,28.045,0,0,1,2.267,5.261s5.712-.645,12.151,7.617c-4.083-10.247-11.517-12.25-14.419-12.878" transform="translate(-266.676 72.505)" fill="#cda7ce"/>
        <path id="Path_2191" data-name="Path 2191" d="M355.385-18.927l-2.085-5.8a15.353,15.353,0,0,1,9.611,8.706c-3.811-3.9-7.075-3.267-7.526-2.9" transform="translate(-280.596 45.334)" fill="#cda7ce"/>
        <path id="Path_2192" data-name="Path 2192" d="M307.72-49.21s6.349,7.522,6.71,20.495,2.45,17.774,5.622,23.577c-2.992-9.611-1.36-17.774-1.268-24.574s-5.351-14.963-11.064-19.5" transform="translate(-244.812 64.552)" fill="#cda7ce"/>
        <path id="Path_2193" data-name="Path 2193" d="M376.07,21.68a33.745,33.745,0,0,1,.726,16.5,28.9,28.9,0,0,0,2.9,20.041c2.54,4.806,6.448,7.8,8.253,2.267,1.719-5.622,0-11.7-1.995-14.419a11.212,11.212,0,0,1-3.439,14.146c-1.9-3.174-1.541-6.8-1.451-13.058,0-6.347,1.451-16.686-4.988-25.481" transform="translate(-298.472 8.898)" fill="#cda7ce"/>
        <path id="Path_2194" data-name="Path 2194" d="M308.659,176.841c.09-1.178.09-2.538.09-4.262-9.431-10.791-5.8-29.379-5.8-29.379-3.9,11.062-.183,25.844,3.718,31.193a19.524,19.524,0,0,0,1.995,2.448" transform="translate(-239.766 -86.505)" fill="#cda7ce"/>
        <path id="Path_2195" data-name="Path 2195" d="M370.61,45.832c-7.89-8.167-6.983-13.6-6.983-13.6-1.994,10.608,2.992,14.509,6.529,19.042,3.439,4.535,7.707,9.523,6.983,16.6-4.172,22.036-16.05,25.118-23.4,21.038a19.007,19.007,0,0,1-.453,3.9c4.988,3.174,11.973,3.808,20.312-6.25,12.508-15.152,4.986-32.562-2.992-40.723" transform="translate(-280.588 0.615)" fill="#cda7ce"/>
        <path id="Path_2196" data-name="Path 2196" d="M353.7,182.86s-1.719,1.451-.726,7.163,1.18,13.058-3.9,11.971c0,0,1.994,5.259,4.715,3.082,2.721-2.085,2.811-6.619,1.451-10.518-1.361-3.991-1.994-9.431-1.541-11.7" transform="translate(-277.275 -117.641)" fill="#cda7ce"/>
        <path id="Path_2197" data-name="Path 2197" d="M325.054,233.07s-1.541,1.994-1.451,9.521c.09,7.617-.454,10.157-4.084,7.8,0,0,.727,6.256,3.439,4.986s4.083-7.254,3.355-11.062c-.544-3.9-2.267-7.346-1.27-11.245" transform="translate(-254.076 -157.06)" fill="#cda7ce"/>
        <path id="Path_2198" data-name="Path 2198" d="M268.2,277.759a48.039,48.039,0,0,0-1.087,8.8c-.09,4.625-2.267,9.521-6.166,10.428-3.9,1-5.078-2.364-4.445-4.715,0,0-2.448,8.616,4.9,9.242,5.622.453,8.794-6.71,7.888-12.876-.815-6.168-1.178-9.07-1.088-10.884" transform="translate(-204.292 -192.138)" fill="#cda7ce"/>
        <path id="Path_2199" data-name="Path 2199" d="M200.176,165.14s3.538,26.568-8.524,37.723c-5.713,5.259-13.422,3.808-10.881-10.608,0,0-4.988,18.679,5.893,17.681s18.053-23.4,13.512-44.8" transform="translate(-144.251 -103.73)" fill="#cda7ce"/>
        <path id="Path_2200" data-name="Path 2200" d="M163.536,292.56s-6.342,10.791-1.36,19.867c1.719,2.719,5.9,2.719,7.075,1.451-3.811,4.083-8.343,3.172-10.43-1.18-3.082-6.346,1.451-16.957,4.715-20.131" transform="translate(-127.108 -203.765)" fill="#cda7ce"/>
        <path id="Path_2201" data-name="Path 2201" d="M299.382,35.032s9.7,20.495.454,37.544a40.245,40.245,0,0,0-1.27-31.832s0-.645-.817.453c-.724.907-1.814,2.811-2.721,1.09-.907-1.814,3.439-8.977,4.354-7.256" transform="translate(-234.75 -1.377)" fill="#cda7ce"/>
        <path id="Path_2202" data-name="Path 2202" d="M423.8,3.11s8.887,7.346,10.338,29.659c0,0-.907-14.6-9.521-23.488-.172,4.8.9,9.065,1.636,9.71s1.18-2.992.817-5.079c1.9,4.262,2.085,7.619.645,8.167-1.36.645-5.44-6.529-3.9-18.954" transform="translate(-335.69 23.477)" fill="#cda7ce"/>
        <path id="Path_2203" data-name="Path 2203" d="M219.3,257.641a33.125,33.125,0,0,0,3.265-3.9c.181,7.436-.09,9.34-4.715,15.506a17.152,17.152,0,0,0,1.451-11.606" transform="translate(-174.257 -173.288)" fill="#cda7ce"/>
        <path id="Path_2204" data-name="Path 2204" d="M182.692,199.725c.544-1.09,5.351-3.357,7.522-.363.817,1.451-6.71,13.239-17.954,18.053a44.278,44.278,0,0,0,12.6-13.149c1.9-3.265-3.355-2.267-2.177-4.533" transform="translate(-138.465 -129.428)" fill="#cda7ce"/>
      </g>
    </g>
    <path id="Path_2205" data-name="Path 2205" d="M56.185,75.385V75.2A27.1,27.1,0,0,0,2,75.2v.891a1.5,1.5,0,0,1,0,.174,27.112,27.112,0,0,0,18.719,25.287,3.559,3.559,0,0,0,.741-1.339v-.058c.058-.269.127-.552.2-.888L21.7,99.1c.337-1.4.744-2.708.75-2.727.1-.352.187-.625.26-.808a4.877,4.877,0,0,1,.529-.879,1.388,1.388,0,0,1,1.141-.546,1.9,1.9,0,0,1,.6.1l.372.155-.017-.4a2.675,2.675,0,0,0-.043-.4,18.191,18.191,0,0,1-4.53-1.6V91.9A18.156,18.156,0,0,1,23.56,58.413l-.024-.075a18.253,18.253,0,0,1,13.847,1.137v.084a18.161,18.161,0,0,1-2.794,33.5l.021.077a18.126,18.126,0,0,1-8.408.628c-1.006,2.089-1.189,5.56-1.189,7.748,0,.282-.019.645-.047,1.06a27.114,27.114,0,0,0,31.213-26.3v-.578A2.478,2.478,0,0,0,56.185,75.385Z" transform="translate(0 -38.297)" fill="#cda7ce"/>
    <path id="Path_2206" data-name="Path 2206" d="M31.663,51.25a26.381,26.381,0,0,0-7.9,51.553,4.082,4.082,0,0,0,.271-.645V102.1c.058-.269.127-.552.2-.888l.047-.168c.337-1.4.744-2.708.75-2.727.1-.352.187-.625.26-.808a4.877,4.877,0,0,1,.529-.879,1.388,1.388,0,0,1,1.141-.546,1.9,1.9,0,0,1,.6.1l.372.155-.017-.4a2.364,2.364,0,0,0-.376-1.262l1.752.148V94.9c-1.431,1.878-1.67,6.052-1.67,8.552v.247a26.379,26.379,0,1,0,4.06-52.44Z" transform="translate(-2.573 -40.235)" fill="#5f2667"/>
    <path id="Path_2207" data-name="Path 2207" d="M41.61,106.145a18.575,18.575,0,1,1,18.576,18.575A18.575,18.575,0,0,1,41.61,106.145" transform="translate(-31.097 -68.75)" fill="#cda7ce" fill-rule="evenodd"/>
    <path id="Path_2208" data-name="Path 2208" d="M96.132,262.057c0-2.5.239-6.673,1.67-8.552v-.073l-1.739-.153a2.364,2.364,0,0,1,.376,1.262l.017.4-.372-.155a1.905,1.905,0,0,0-.6-.1,1.388,1.388,0,0,0-1.141.546,4.875,4.875,0,0,0-.529.879c-.073.183-.159.456-.26.808,0,.019-.413,1.328-.75,2.727l-.047.168c-.069.335-.138.619-.2.888v.043Z" transform="translate(-71.097 -198.845)" fill="#fff" fill-rule="evenodd"/>
    <path id="Path_2209" data-name="Path 2209" d="M45.16,108.909a17.812,17.812,0,1,1,17.811,17.806A17.812,17.812,0,0,1,45.16,108.909" transform="translate(-33.884 -71.513)" fill="#fff" fill-rule="evenodd"/>
    <path id="Path_2210" data-name="Path 2210" d="M51.56,113.439a16.381,16.381,0,1,1,16.382,16.383A16.381,16.381,0,0,1,51.56,113.439" transform="translate(-38.909 -76.2)" fill="#d4c094" fill-rule="evenodd"/>
    <path id="Path_2211" data-name="Path 2211" d="M71.143,110.98a19.282,19.282,0,0,0-3.922,3.535l1.393.092s.453-.316.58-.011a.529.529,0,0,1-.191.548l-1,.013.507.335-.714.9.017,1.427c0,.269.666.645.666.645a5.468,5.468,0,0,0,1.358.372c.43,0,1.891-.23,2.815-.239s.86.989.86.989a2.47,2.47,0,0,0-1.21-.481,9.7,9.7,0,0,0-2.811.08,2.363,2.363,0,0,1-1.315-.215,1.555,1.555,0,0,0,.071,2.244c.632.649,2.091.544,2.972.071a2.441,2.441,0,0,1,1.934,0,6.613,6.613,0,0,1-2.923,1.042,2.6,2.6,0,0,1-3.026-1.146,3.133,3.133,0,0,1,.737-2.446,7.334,7.334,0,0,0-.63-.686c-.155-.112-.215-1-.288-1.234s-.514-1.075-.514-1.075a1.26,1.26,0,0,1,.045-1.584,28.731,28.731,0,0,1,4.122-3.458,1.9,1.9,0,0,1,.931-2.181l1.956-1.259q1.554-4.629,6-4.492-4.771,1.075-5.031,4.707-4,1.934-3.387,3.507" transform="translate(-50.445 -80.676)" fill="#5f2667" fill-rule="evenodd"/>
    <path id="Path_2212" data-name="Path 2212" d="M97.39,140.451l-1.934-.361a4.535,4.535,0,0,1-.746,1.674,2.852,2.852,0,0,1,2.461-.806Z" transform="translate(-72.785 -109.982)" fill="#5f2667" fill-rule="evenodd"/>
    <path id="Path_2213" data-name="Path 2213" d="M103.153,145.861a13.573,13.573,0,0,0-3.458,11.677,21.075,21.075,0,0,1,2.717-9.31c.3-.58,4.157-5.927,4.157-5.927l-2.441,2.461a12.275,12.275,0,0,1,2.364-4.9c-.361-2.766-1.206-4.445-2.547-5.023a8.493,8.493,0,0,1,1.859,5.347,8.654,8.654,0,0,0-2.656,5.667" transform="translate(-76.551 -105.86)" fill="#5f2667" fill-rule="evenodd"/>
    <path id="Path_2214" data-name="Path 2214" d="M111,107.669l1.578-.8q1.646-2.9,6.484-2.873-6.155-.673-8.062,3.669" transform="translate(-85.574 -81.578)" fill="#5f2667" fill-rule="evenodd"/>
    <path id="Path_2215" data-name="Path 2215" d="M137.05,107.984a12.915,12.915,0,0,1,9.428,5.612q-2.9-6.357-9.428-5.612" transform="translate(-106.026 -84.715)" fill="#5f2667" fill-rule="evenodd"/>
    <path id="Path_2216" data-name="Path 2216" d="M136.795,119.221q.922-4.361-1.425-4.8c1.165.885,1.375,2.212.645,3.965Z" transform="translate(-104.707 -89.829)" fill="#5f2667" fill-rule="evenodd"/>
    <path id="Path_2217" data-name="Path 2217" d="M125.886,119.475l-.052-1.193-1.075.514c.021-1.79.505-2.65,1.466-2.566q1.341.694.7,2.811c-.286.522-.628.666-1.038.43" transform="translate(-96.377 -91.245)" fill="#5f2667" fill-rule="evenodd"/>
    <path id="Path_2218" data-name="Path 2218" d="M152.76,119.2a7.041,7.041,0,0,1,.6,1.412s1.537-.183,3.293,2.065a5.179,5.179,0,0,0-3.9-3.477" transform="translate(-118.359 -93.582)" fill="#5f2667" fill-rule="evenodd"/>
    <path id="Path_2219" data-name="Path 2219" d="M158.17,130.121l-.55-1.571a4.12,4.12,0,0,1,2.594,2.364c-1.027-1.075-1.915-.892-2.044-.789" transform="translate(-122.175 -100.922)" fill="#5f2667" fill-rule="evenodd"/>
    <path id="Path_2220" data-name="Path 2220" d="M145.33,121.87a9.448,9.448,0,0,1,1.805,5.543c.086,3.505.645,4.806,1.515,6.37-.81-2.579-.37-4.8-.34-6.63s-1.438-4.056-2.981-5.283" transform="translate(-112.526 -95.678)" fill="#5f2667" fill-rule="evenodd"/>
    <path id="Path_2221" data-name="Path 2221" d="M163.71,141.044a9.271,9.271,0,0,1,.2,4.47,7.654,7.654,0,0,0,.791,5.412c.679,1.309,1.745,2.117,2.218.6a4.76,4.76,0,0,0-.544-3.892,3.022,3.022,0,0,1-.939,3.815c-.524-.86-.43-1.831-.4-3.531s.43-4.49-1.33-6.877" transform="translate(-126.956 -110.728)" fill="#5f2667" fill-rule="evenodd"/>
    <path id="Path_2222" data-name="Path 2222" d="M145.459,183c.019-.309.034-.692.019-1.154-2.551-2.908-1.569-7.926-1.569-7.926a10.768,10.768,0,0,0,.993,8.412,7.605,7.605,0,0,0,.557.668" transform="translate(-111.052 -136.541)" fill="#5f2667" fill-rule="evenodd"/>
    <path id="Path_2223" data-name="Path 2223" d="M162.2,147.7c-2.149-2.2-1.883-3.654-1.883-3.654-.55,2.873.808,3.918,1.758,5.145s2.085,2.564,1.874,4.494c-1.113,5.955-4.326,6.776-6.321,5.672a4.414,4.414,0,0,1-.133,1.064c1.339.86,3.241,1.036,5.489-1.694,3.4-4.129,1.354-8.829-.784-11.019" transform="translate(-122.08 -113.091)" fill="#5f2667" fill-rule="evenodd"/>
    <path id="Path_2224" data-name="Path 2224" d="M157.619,184.592s-.464.4-.215,1.934.314,3.525-1.045,3.241c0,0,.55,1.41,1.29.832a2.561,2.561,0,0,0,.389-2.843,7.875,7.875,0,0,1-.419-3.166" transform="translate(-121.185 -144.918)" fill="#5f2667" fill-rule="evenodd"/>
    <path id="Path_2225" data-name="Path 2225" d="M150.082,198.122s-.413.527-.383,2.579-.116,2.736-1.09,2.106c0,0,.2,1.689.937,1.343s1.111-1.969.918-3-.668-1.964-.383-3.035" transform="translate(-115.101 -155.54)" fill="#5f2667" fill-rule="evenodd"/>
    <path id="Path_2226" data-name="Path 2226" d="M134.591,210.21a12.77,12.77,0,0,0-.3,2.386c-.019,1.24-.623,2.562-1.668,2.82s-1.36-.645-1.206-1.264c0,0-.664,2.334,1.324,2.506,1.517.12,2.364-1.814,2.149-3.488a19.533,19.533,0,0,1-.294-2.959" transform="translate(-101.523 -165.032)" fill="#5f2667" fill-rule="evenodd"/>
    <path id="Path_2227" data-name="Path 2227" d="M116.192,179.77s.948,7.176-2.31,10.194c-1.532,1.421-3.628,1.036-2.944-2.867,0,0-1.348,5.048,1.6,4.78s4.879-6.31,3.654-12.106" transform="translate(-85.284 -141.134)" fill="#5f2667" fill-rule="evenodd"/>
    <path id="Path_2228" data-name="Path 2228" d="M106.349,214.194s-1.719,2.912-.37,5.373a1.428,1.428,0,0,0,1.919.4,1.59,1.59,0,0,1-2.818-.325c-.84-1.732.4-4.593,1.268-5.452" transform="translate(-80.708 -168.157)" fill="#5f2667" fill-rule="evenodd"/>
    <path id="Path_2229" data-name="Path 2229" d="M143.017,144.723s2.613,5.526.125,10.138a10.9,10.9,0,0,0-.331-8.608s0-.161-.23.129c-.187.245-.5.759-.744.286s.937-2.426,1.18-1.945" transform="translate(-109.757 -113.56)" fill="#5f2667" fill-rule="evenodd"/>
    <path id="Path_2230" data-name="Path 2230" d="M176.662,136s2.4,1.973,2.794,8.014c0,0-.254-3.946-2.579-6.344a5.2,5.2,0,0,0,.443,2.624c.193.172.316-.8.215-1.36.512,1.15.552,2.052.174,2.207s-1.459-1.782-1.047-5.141" transform="translate(-137.052 -106.771)" fill="#5f2667" fill-rule="evenodd"/>
    <path id="Path_2231" data-name="Path 2231" d="M121.475,204.794a9.606,9.606,0,0,0,.879-1.045,4.947,4.947,0,0,1-1.264,4.178,4.763,4.763,0,0,0,.385-3.134" transform="translate(-93.496 -159.96)" fill="#5f2667" fill-rule="evenodd"/>
    <path id="Path_2232" data-name="Path 2232" d="M111.565,189.179c.144-.3,1.434-.9,2.033-.092.232.393-1.8,3.578-4.838,4.885a11.658,11.658,0,0,0,3.394-3.563c.5-.885-.9-.623-.589-1.229" transform="translate(-83.816 -148.13)" fill="#5f2667" fill-rule="evenodd"/>
    <path id="Path_2233" data-name="Path 2233" d="M103.742,285.895c.4-.161.466.034-.133.262a21.417,21.417,0,0,1-11.967.557,56.417,56.417,0,0,1-8.382-2.351l.374-.812s19.639,2.543,20.119,2.345" transform="translate(-63.796 -222.61)" fill="#dcc894" fill-rule="evenodd"/>
    <path id="Path_2234" data-name="Path 2234" d="M89.67,251.969l.254-.589c.393.189,4.184,2.046,6.218,2.74,4.4,1.5,8.4,2.484,11.3,2.484a22.809,22.809,0,0,0,4.124-.346,15.622,15.622,0,0,0,3.161-.924,8.2,8.2,0,0,0,2.184-1.988c.249-.318.456-.514.471-.335.282,2.579-2.764,4.341-7.032,4.9-4.339.563-8.494-1.412-12.528-2.323a20.662,20.662,0,0,1-8.152-3.615" transform="translate(-68.828 -197.354)" fill="#cda7ce" fill-rule="evenodd"/>
    <path id="Path_2235" data-name="Path 2235" d="M89.67,253.021l.3-.481c.4.18,4.135,1.934,6.168,2.633,4.4,1.5,8.4,2.482,11.3,2.482a22.187,22.187,0,0,0,4.124-.348,14.911,14.911,0,0,0,4.3-1.459c.189-.067-.047.2-.138.282-1.231,1.111-4.174,1.889-5.554,2.063-4.343.557-8.328-.645-12.362-1.562a20.557,20.557,0,0,1-8.141-3.608" transform="translate(-68.828 -198.264)" fill="#dcc894" fill-rule="evenodd"/>
    <path id="Path_2236" data-name="Path 2236" d="M108.407,259.7l.305.462s.125.144-.978,1.047a17.875,17.875,0,0,1-3.942,2.6c-3.83,1.388-7.911,1.115-11.9.215a46.2,46.2,0,0,1-8.313-2.618l1.857-6.05a56.159,56.159,0,0,0,5.756,2.592c4.436,1.522,7.131,2.383,11.455,2.422a18.563,18.563,0,0,0,5.76-.675" transform="translate(-64.047 -200.478)" fill="#cda7ce" fill-rule="evenodd"/>
    <path id="Path_2237" data-name="Path 2237" d="M93.536,262.912c4.5,1.545,7.275,2.433,11.7,2.463,3.993.039,5.36-.574,5.36-.574a17.973,17.973,0,0,1-4.672,3.075c-2.861,1.064-7.535.989-11.436.058a58.185,58.185,0,0,1-7.6-2.315l1.556-4.99a44.76,44.76,0,0,0,5.1,2.282" transform="translate(-66.638 -204.616)" fill="#dcc894" fill-rule="evenodd"/>
    <path id="Path_2238" data-name="Path 2238" d="M118.7,249.52s-2.562,1.38-2.491,9.545a10.924,10.924,0,0,0,.86,4.808l-4.051-2.59-4.017,2.6s.43-3.4.43-4.78.056-7.307,2.046-8.8a.267.267,0,0,1,.215-.073,16.028,16.028,0,0,0,6.989-.714" transform="translate(-84.004 -195.893)" fill="#dcc894" fill-rule="evenodd"/>
    <path id="Path_2239" data-name="Path 2239" d="M106.93,263.311l.06-.8c0-.092.43-3.4.43-4.745,0-2.775.288-7.623,2.186-9.091a.662.662,0,0,1,.451-.176h.071l.127.017c.391.032,1.055.092,1.889.092a13.742,13.742,0,0,0,4.8-.793l.322.711c-.017.011-2.579,1.259-2.538,8.99.03,3.793.477,3.611.645,4.343l.509,1.412-4.5-2.867Zm4.455-3.5,3.535,2.1a8.634,8.634,0,0,1-.733-4.178c-.037-4.978.892-7.522,1.681-8.764a15.916,15.916,0,0,1-3.731.43h0c-.86,0-1.55-.062-1.958-.092l-.088-.011c-1.182.9-1.872,4.068-2.059,8.468-.069,1.605-.275,2.126-.471,4.475Z" transform="translate(-82.379 -194.559)" fill="#cda7ce"/>
    <path id="Path_2240" data-name="Path 2240" d="M117.619,263.162l-2.719,1.8.021-.193a13.554,13.554,0,0,0,.2-2.56c0-4.328.683-7.378,1.934-8.6l.118.125c-1.206,1.18-1.87,4.193-1.87,8.472a12.006,12.006,0,0,1-.181,2.4l2.515-1.655,2.633,1.741a4.873,4.873,0,0,1-.645-2.519c.052-3.69.464-6.7,1.421-8.693l.155.075a20.416,20.416,0,0,0-1.395,8.618,10.263,10.263,0,0,0,.845,3.235Z" transform="translate(-88.636 -199.002)" fill="#cda7ce"/>
    <path id="Path_2241" data-name="Path 2241" d="M76.545,258.058c.067-.3.131-.6.215-.9a.617.617,0,0,1,.041-.181c.344-1.425.757-2.734.757-2.734.095-.333.187-.634.266-.84a5.917,5.917,0,0,1,.561-.939,1.828,1.828,0,0,1,2.048-.524c-.043-1.322-1-2.087-2.5-1.966s-2.016,1.81-2.037,2.6-.939,1.259-1.455,1.616-1.139.415-1.468.782.447,1.06,1.214.776l.6-.23a4.6,4.6,0,0,1-.7,1.988,1.519,1.519,0,0,1-1.6.408s-.138,2.173,1.883,2.113a2.441,2.441,0,0,0,2.179-1.954v-.022" transform="translate(-55.333 -196.241)" fill="#dcc894" fill-rule="evenodd"/>
    <path id="Path_2242" data-name="Path 2242" d="M73.32,259.335h0a1.934,1.934,0,0,1-1.472-.563,2.692,2.692,0,0,1-.585-1.823l.017-.335.325.1a1.564,1.564,0,0,0,.451.067,1.012,1.012,0,0,0,.86-.385,3.869,3.869,0,0,0,.574-1.423l-.163.067a1.31,1.31,0,0,1-.471.088,1.251,1.251,0,0,1-1.13-.645.574.574,0,0,1,.086-.634,2.224,2.224,0,0,1,.86-.5,3.3,3.3,0,0,0,.673-.329c.075-.062.172-.116.273-.187.466-.307,1.036-.694,1.053-1.223.028-.873.63-2.714,2.276-2.854.11,0,.215-.013.327-.013a2.226,2.226,0,0,1,2.459,2.235l.017.4-.372-.155a1.9,1.9,0,0,0-.6-.1,1.388,1.388,0,0,0-1.141.546,4.874,4.874,0,0,0-.529.879c-.073.183-.159.456-.26.808,0,.019-.413,1.328-.75,2.727l-.047.168c-.069.335-.138.619-.2.888v.058a2.668,2.668,0,0,1-2.422,2.134ZM71.8,257.28a1.934,1.934,0,0,0,.443,1.13,1.4,1.4,0,0,0,1.075.4h.077a2.186,2.186,0,0,0,1.934-1.737v-.024c.06-.277.125-.563.2-.894a.848.848,0,0,1,.052-.226c.342-1.4.752-2.71.754-2.723.105-.367.2-.658.275-.86v-.015a5.47,5.47,0,0,1,.61-.98,1.934,1.934,0,0,1,1.556-.744,2.3,2.3,0,0,1,.4.032,1.741,1.741,0,0,0-1.906-1.371h-.282c-1.307.112-1.775,1.635-1.8,2.364-.017.8-.748,1.279-1.289,1.636-.1.062-.185.12-.266.176a3.356,3.356,0,0,1-.782.389,1.823,1.823,0,0,0-.645.365s-.017.021,0,.071a.765.765,0,0,0,.645.335.822.822,0,0,0,.284-.052l1-.38-.049.43a5.051,5.051,0,0,1-.757,2.123,1.53,1.53,0,0,1-1.268.593,1.332,1.332,0,0,1-.266-.039Z" transform="translate(-54.374 -195.289)" fill="#cda7ce"/>
    <path id="Path_2243" data-name="Path 2243" d="M124.889,261.168l-.539-.194V259.33h.08a7.164,7.164,0,0,0,1.075,1.025,1.386,1.386,0,0,0,.763.3.612.612,0,0,0,.43-.165.522.522,0,0,0,.168-.385.645.645,0,0,0-.116-.37.784.784,0,0,0-.355-.249v-.067a.909.909,0,0,1,.58.26.724.724,0,0,1,.2.531.789.789,0,0,1-.215.563.688.688,0,0,1-.52.23,1,1,0,0,1-.415-.1,2.775,2.775,0,0,1-.709-.492c-.372-.342-.589-.548-.673-.645v.729a1.671,1.671,0,0,0,.019.309.54.54,0,0,0,.064.161.4.4,0,0,0,.148.122Z" transform="translate(-96.055 -203.595)" fill="#5f2667"/>
    <path id="Path_2244" data-name="Path 2244" d="M123.909,269.639a2.148,2.148,0,0,1,.817.148,1.2,1.2,0,0,1,.514.383.694.694,0,0,1,.135.383.75.75,0,0,1-.329.576,1.765,1.765,0,0,1-1.1.312,2.208,2.208,0,0,1-.819-.133,1.041,1.041,0,0,1-.486-.359.7.7,0,0,1-.159-.43.761.761,0,0,1,.469-.645A1.936,1.936,0,0,1,123.909,269.639Zm-.054.4a2.628,2.628,0,0,0-.937.142c-.215.082-.309.193-.309.35a.34.34,0,0,0,.1.228.582.582,0,0,0,.333.183,3.973,3.973,0,0,0,1,.1,2.715,2.715,0,0,0,.793-.1.708.708,0,0,0,.333-.193.3.3,0,0,0,.071-.2.324.324,0,0,0-.127-.249,1.052,1.052,0,0,0-.539-.2A4.546,4.546,0,0,0,123.855,270.043Z" transform="translate(-94.587 -211.688)" fill="#5f2667"/>
    <path id="Path_2245" data-name="Path 2245" d="M124.506,280.76l.331.679v.064h-2.353a1.047,1.047,0,0,0-.288.022.14.14,0,0,0-.092.082.591.591,0,0,0-.03.252H122v-1.047h.077a.591.591,0,0,0,.03.254.167.167,0,0,0,.077.077,1.057,1.057,0,0,0,.3.021h1.5a2.5,2.5,0,0,0,.389-.017.162.162,0,0,0,.095-.052.178.178,0,0,0,.032-.092.461.461,0,0,0-.069-.215Z" transform="translate(-94.21 -220.419)" fill="#5f2667"/>
    <path id="Path_2246" data-name="Path 2246" d="M120.722,289.829h-.3v-.372h-.735v-.34h.735V287.94h.264l1.842,1.289v.228h-1.81Zm0-.714H122.1l-1.375-.976Z" transform="translate(-92.397 -226.056)" fill="#5f2667"/>
    <path id="Path_2247" data-name="Path 2247" d="M21.1,95.515a2.118,2.118,0,0,1-.266.123l-.327-.408c-.047-.047-.1-.1-.176-.168l-.922.453c-.316.185-.55.327-.716.413l-.088.045c-.1.045-.35.183-.746.4l-.09.064-.312.15-.305.185-.157.09a4.788,4.788,0,0,0-.471.3.464.464,0,0,0-.075.08.319.319,0,0,0,.019.071.763.763,0,0,0,.034.073,2.679,2.679,0,0,0,.129.325l.015.064a1.041,1.041,0,0,1,.056.161.574.574,0,0,1-.131.079.335.335,0,0,1-.129.045,2.251,2.251,0,0,1-.127-.191c-.049-.084-.08-.148-.1-.176-.129-.312-.236-.537-.312-.681-.041-.064-.067-.129-.107-.2a1.566,1.566,0,0,0-.09-.181c-.041-.08-.157-.266-.355-.559a.86.86,0,0,1-.105-.155c-.049-.092-.09-.17-.116-.232a.714.714,0,0,0,.105-.067c.047-.015.1-.041.161-.067l.451.589a.127.127,0,0,0,.146.015l.125-.08.064-.034.153-.082.127-.067h.026a.1.1,0,0,1,.064-.043l.453-.249c.043-.028.073-.049.1-.062l.112-.056c.041-.015.086-.041.127-.06s.118-.077.245-.15c-.021-.073-.049-.138-.064-.181l-.292-.542-.146-.258-.352-.645-.368-.619a1.459,1.459,0,0,0-.168-.245c-.084.041-.286.148-.606.32l-.165.08-.606.35-.226.174a.116.116,0,0,0-.024.08,2.519,2.519,0,0,0,.112.576c.015.054.021.1.032.148a.821.821,0,0,1-.215.086.3.3,0,0,1-.054-.095l-.193-.344a5.4,5.4,0,0,0-.329-.7c-.028-.054-.052-.092-.069-.125l-.277-.458a.706.706,0,0,0-.073-.116,1.447,1.447,0,0,1-.174-.251,2.6,2.6,0,0,1-.123-.267,2.188,2.188,0,0,1,.26-.125c.168.193.282.322.333.376a1.505,1.505,0,0,0,.2.155l.077-.019.071-.032.084-.054.052-.024a.939.939,0,0,0,.118-.049l.09-.052.178-.107.453-.254.34-.2.462-.243c.11-.056.318-.181.645-.365l.512-.288.43-.234c.08-.049.174-.095.29-.153a.748.748,0,0,0-.043-.163,3.024,3.024,0,0,1-.131-.587l.251-.15.092.168a4.236,4.236,0,0,1,.2.406,10.089,10.089,0,0,0,.494.961,7.777,7.777,0,0,0,.447.739.449.449,0,0,1,.047.135,1.146,1.146,0,0,1-.258.1l-.215-.241-.2-.258c-.026-.019-.054-.052-.1-.09a10.147,10.147,0,0,0-.984.5l-.316.146a3.778,3.778,0,0,1-.43.282,2.981,2.981,0,0,0,.14.292l.913,1.676.013.039v.024a.5.5,0,0,1,.037.056c.037.06.067.116.1.159l.052.1a.541.541,0,0,0,.112.138l.277-.133.045-.021a.792.792,0,0,1,.12-.077l1.111-.619c.06-.037.125-.075.185-.116V94l-.215-.585a.532.532,0,0,1-.019-.067c0-.041-.019-.073,0-.1.047-.039.084-.062.1-.077l.14-.056c.047.09.088.159.125.215s.052.105.077.148a.43.43,0,0,1,.028.067l.266.516c.056.127.142.3.26.512l.047.08.107.168C20.787,94.973,20.923,95.2,21.1,95.515Zm-3.469-6.6a3.83,3.83,0,0,0-.138-.559l-.06-.159c-.054-.645-.1-1.047-.118-1.214a.581.581,0,0,0-.1,0l-.2.037v.294a.769.769,0,0,1-.049.376.187.187,0,0,1-.144.08.859.859,0,0,1-.3-.034c-.531-.1-.86-.163-1.012-.2l-.241-1.545.748-.447.37-.226a.314.314,0,0,1,.11-.037.129.129,0,0,1,.095.024.709.709,0,0,1,.116.215l.172.43a1.562,1.562,0,0,0,.273-.03l-.039-.2-.146-.664c-.024-.095-.054-.249-.086-.46s-.054-.408-.075-.658-.041-.466-.071-.664a.641.641,0,0,0-.095.011l-.2.049a1.7,1.7,0,0,0-.03.376.533.533,0,0,1-.047.254.746.746,0,0,1-.181.155,4.976,4.976,0,0,1-.486.3c-.243.14-.419.241-.533.314-.2.127-.458.282-.767.46s-.645.378-.963.591l-1.558.969-.069.047.021.185c.017.082.03.168.047.258l2.676.561,2.274.475a.73.73,0,0,1,.26.133,1.137,1.137,0,0,1,.163.363c.047.12.086.215.107.256l.284-.037Zm-2.566-1.466c-.092-.645-.148-1-.168-1.12l-.017-.1c-.236.116-.494.264-.8.445s-.522.325-.683.43Zm1.782-5.65c.034-.408.069-.754.114-1.047l.114-.69a4.814,4.814,0,0,0,.054-.694,2.9,2.9,0,0,0-.11-.75,1.5,1.5,0,0,0-.309-.537.98.98,0,0,0-.37-.305,1.614,1.614,0,0,0-.546-.181,1.2,1.2,0,0,0-.86.2,1.676,1.676,0,0,0-.645.86,3.2,3.2,0,0,0-.2-.561,1.272,1.272,0,0,0-.309-.387,1.01,1.01,0,0,0-.43-.172,1.528,1.528,0,0,0-.43.013.961.961,0,0,0-.391.183,1.023,1.023,0,0,0-.32.335,1.481,1.481,0,0,0-.185.3,2.68,2.68,0,0,0-.191.664l-.037.258c-.024.118-.026.187-.032.215a.528.528,0,0,0,0,.1l-.021.157L11.6,81.089,11.49,82l.29.03c.06-.215.1-.342.107-.393a.458.458,0,0,1,.084-.236c.017-.015.026-.03.045-.032a1.075,1.075,0,0,1,.385.013c.761.09,1.229.146,1.414.172l1.73.234a4.155,4.155,0,0,1,.664.129.725.725,0,0,1,.174.1,2.134,2.134,0,0,1,.043.43v.239l.329.06C16.811,82.226,16.841,81.915,16.85,81.794Zm-2.916-1.369c.03-.112.052-.239.075-.383a1.567,1.567,0,0,0-.1-.959.913.913,0,0,0-.733-.43.86.86,0,0,0-.7.2,1.382,1.382,0,0,0-.389.86c0,.116-.017.275-.017.456.067.013.153.024.271.037.236.019.554.058.974.114l.344.064A2.008,2.008,0,0,1,13.934,80.425Zm2.609.318a1.354,1.354,0,0,0,.181-.479,1.7,1.7,0,0,0-.034-.774.933.933,0,0,0-.329-.484,1.464,1.464,0,0,0-.613-.226,1.261,1.261,0,0,0-.645.058,1.038,1.038,0,0,0-.507.43,2.323,2.323,0,0,0-.228.86.86.86,0,0,0-.013.359l.5.067.6.095.937.12A.548.548,0,0,0,16.543,80.743Zm1.341-4.223c.082-.264.148-.469.2-.6l.286-.671c.148-.292.236-.451.254-.486a.49.49,0,0,0,.052-.1.841.841,0,0,1,.049-.14.258.258,0,0,1,.03-.082.839.839,0,0,0-.133-.054.956.956,0,0,0-.2-.062,33.166,33.166,0,0,1-.376.617.2.2,0,0,1-.088-.024l-.144-.056-.765-.309-.505-.215-1.008-.4c-.234-.095-.561-.23-.986-.41a2.15,2.15,0,0,1-.273-.1A1.476,1.476,0,0,1,14,73.288a2.053,2.053,0,0,1,.034-.361c.019-.142.034-.271.039-.389-.064-.03-.125-.056-.163-.08l-.12-.039c-.019.052-.056.168-.12.352-.112.342-.2.589-.26.735-.013.034-.054.118-.114.249l-.479,1.075.333.127c.019-.032.039-.08.062-.127a1.8,1.8,0,0,1,.3-.477.5.5,0,0,1,.138.024l.165.058.441.165.2.09.505.2.772.337.215.08.86.355.449.183a.658.658,0,0,1,.294.2,1.5,1.5,0,0,1-.019.43c-.019.131-.028.215-.039.282l.282.112c.011-.056.056-.17.1-.346ZM19.6,72.738c.215-.346.415-.645.593-.879l.43-.552a4.409,4.409,0,0,0,.378-.6,3.3,3.3,0,0,0,.256-.7,1.79,1.79,0,0,0-.021-.628,1.163,1.163,0,0,0-.183-.443,2.114,2.114,0,0,0-.4-.417,1.225,1.225,0,0,0-.86-.215,1.73,1.73,0,0,0-.971.466,4.315,4.315,0,0,0,.08-.6,1.186,1.186,0,0,0-.1-.486.978.978,0,0,0-.305-.355,1.216,1.216,0,0,0-.389-.191,1.075,1.075,0,0,0-.43-.032,1.35,1.35,0,0,0-.43.14,2.085,2.085,0,0,0-.778.683l-.155.215c-.075.092-.114.153-.133.176a.322.322,0,0,0-.056.082l-.09.131-.759,1.109-.522.757.243.17.279-.3a.576.576,0,0,1,.185-.163.084.084,0,0,1,.06,0,2.15,2.15,0,0,1,.333.191c.625.43,1.019.7,1.156.815l1.423,1.017a5.927,5.927,0,0,1,.529.43.645.645,0,0,1,.105.163,1.5,1.5,0,0,1-.168.393l-.1.215.26.2c.3-.432.486-.7.535-.793Zm-1.934-2.579a2.441,2.441,0,0,0,.245-.3,1.646,1.646,0,0,0,.368-.89.909.909,0,0,0-.451-.716.86.86,0,0,0-.7-.146,1.337,1.337,0,0,0-.746.574c-.064.1-.142.23-.23.4.052.041.125.086.215.155.2.129.469.309.8.559l.277.215c.049.03.118.08.221.153Zm2.149,1.5a1.242,1.242,0,0,0,.378-.346,1.719,1.719,0,0,0,.335-.7.875.875,0,0,0-.067-.585,1.324,1.324,0,0,0-.43-.486,1.178,1.178,0,0,0-.6-.251,1.042,1.042,0,0,0-.645.144,2.59,2.59,0,0,0-.6.645,1.206,1.206,0,0,0-.183.309l.408.3.492.365.769.544a.391.391,0,0,0,.138.056Zm4.247-10.219c.294-.116.486-.146.574-.095s.189.269.387.692l.789,1.788a5.631,5.631,0,0,0,.41.774,1.608,1.608,0,0,0,.587.529,1.575,1.575,0,0,0,.81.127,2.921,2.921,0,0,0,1.075-.286,3.4,3.4,0,0,0,.84-.512,2.126,2.126,0,0,0,.507-.585,1.56,1.56,0,0,0,.215-.6,1.326,1.326,0,0,0-.032-.471,7.168,7.168,0,0,0-.406-1.049l-.383-.744c-.086-.185-.174-.363-.26-.537a.73.73,0,0,1-.075-.155,1.994,1.994,0,0,1-.095-.215,3.472,3.472,0,0,0-.161-.318,1.441,1.441,0,0,1-.1-.193.176.176,0,0,1,0-.159A1.3,1.3,0,0,1,29,59.264a1.5,1.5,0,0,0,.275-.176.264.264,0,0,0-.034-.105.525.525,0,0,0-.095-.161l-.067.017a6.489,6.489,0,0,1-.681.342l-.729.286-.3.129.118.294.056-.013.346-.163a.486.486,0,0,1,.331,0c.067.026.133.116.215.262l.105.185c.406.733.741,1.395,1,2a3.164,3.164,0,0,1,.277.8,1.8,1.8,0,0,1-.034.484.78.78,0,0,1-.138.307,1.215,1.215,0,0,1-.26.337,3.028,3.028,0,0,1-.632.391,1.479,1.479,0,0,1-.688.118.952.952,0,0,1-.479-.161,1.575,1.575,0,0,1-.484-.6l-.466-.926-.277-.66-.153-.292-.148-.355L26,61.471c-.026-.045-.056-.107-.092-.189a1.53,1.53,0,0,1-.159-.466A.413.413,0,0,1,26,60.6a2.959,2.959,0,0,0,.43-.215v-.028l-.105-.215-.026-.049a2.378,2.378,0,0,1-.292.138c-.148.069-.314.15-.5.247s-.385.185-.585.271c-.06.026-.258.105-.593.234-.138.056-.273.11-.4.165-.045.026-.09.045-.14.071l.129.292A.714.714,0,0,0,24.065,61.444Zm8.545-2.968a.939.939,0,0,1,.327.215.389.389,0,0,1,.1.163,2.3,2.3,0,0,1,.084.645l.045.834.039,1.333v1.027c0,.146-.013.241-.06.277a.946.946,0,0,1-.406.067h-.161a1.045,1.045,0,0,0-.189.024v.318a.645.645,0,0,0,.144.013l.236-.024c.146-.013.43-.037.86-.058.469.03.748.045.834.037l.161-.011-.03-.344a.929.929,0,0,0-.11-.024,3.284,3.284,0,0,1-.7-.062l-.054-.125a1,1,0,0,1-.019-.153c-.034-.26-.06-.5-.077-.726l-.045-.533v-.574l-.1-1.526.69.582c.284.239.6.518.95.834l.539.514.718.673,1.029.954.514.49.469-.034v-.215a.927.927,0,0,0-.024-.2v-.215l-.024-.215-.017-.5a2.009,2.009,0,0,0,0-.215l-.1-1.438c0-.095-.017-.176-.019-.247-.03-.232-.049-.546-.067-.943,0-.183-.015-.294-.015-.344a1.558,1.558,0,0,1-.019-.174.251.251,0,0,1,.034-.155,2.233,2.233,0,0,1,.215-.153,1.934,1.934,0,0,1,.3-.095.66.66,0,0,0,.187-.082l-.015-.269h-.172l-.888.058-.81.049-.1.019v.243a1.266,1.266,0,0,0,.335.082.778.778,0,0,1,.4.125c.041.037.06.142.069.32,0,.058.03.264.069.617a5.26,5.26,0,0,1,.047.617c.017.215.032.43.049.585s.037.385.054.664l.032.475v.1c-1.732-1.6-2.729-2.532-3.009-2.794s-.645-.589-1.075-.956a1.269,1.269,0,0,0-.129,0,1.991,1.991,0,0,0-.254.019c-.15.019-.228.013-.249.017a.691.691,0,0,1-.095,0h-.29a2.185,2.185,0,0,0-.342.026h-.114l-.357.015.03.288a3.059,3.059,0,0,1,.563.086Zm7.658,5.059c.277.043.484.08.628.112l.7.183c.309.105.477.174.516.189a.929.929,0,0,0,.1.037.5.5,0,0,1,.153.03.336.336,0,0,1,.073.015c.021-.06.03-.1.045-.135a1.638,1.638,0,0,0,.028-.2,2.432,2.432,0,0,1-.23-.1,2.981,2.981,0,0,1-.43-.178.326.326,0,0,1,.013-.092l.034-.161.193-.8.142-.531.26-1.055c.056-.243.148-.585.269-1.029a1.933,1.933,0,0,1,.058-.288,1.837,1.837,0,0,1,.095-.294,3.41,3.41,0,0,1,.365,0c.15.013.277,0,.393,0,.019-.077.037-.133.049-.181a.831.831,0,0,0,.026-.122c-.052-.013-.172-.034-.368-.069-.355-.067-.608-.116-.763-.155l-.264-.075-1.118-.344-.077.348a.589.589,0,0,0,.133.047,1.631,1.631,0,0,1,.516.232,1.289,1.289,0,0,1,0,.131l-.043.176-.1.46-.062.215-.138.522c0,.017-.075.286-.215.81l-.052.215-.23.9-.116.477a.765.765,0,0,1-.157.32,1.557,1.557,0,0,1-.43.043H40l-.073.288c.043,0,.172.026.346.056Zm5.289-3.759a1.408,1.408,0,0,1,.279.232.49.49,0,0,1,.073.215c0,.043,0,.348-.043.907l-.11,1.208-.138,1.9c-.062.546-.1.86-.116.95s-.026.174-.037.262a1.786,1.786,0,0,0,.2.107,1.029,1.029,0,0,0,.183.09c.12-.1.325-.3.615-.582l.073-.045c.228-.2.365-.314.4-.346.133-.125.271-.236.385-.337a4.118,4.118,0,0,0,.346-.294l1.1-.95a10.527,10.527,0,0,1,.937-.759.55.55,0,0,1,.168-.067,3.544,3.544,0,0,1,.668.064.6.6,0,0,0,.069-.133l.069-.118c-.092-.043-.215-.095-.363-.155a4.329,4.329,0,0,1-.533-.243,6.118,6.118,0,0,1-.589-.355,2.413,2.413,0,0,0-.359-.228,1.786,1.786,0,0,0-.105.161.533.533,0,0,0-.034.127c.034.03.086.056.135.095a.859.859,0,0,1,.123.09.812.812,0,0,1,.288.286.155.155,0,0,1,.013.159.935.935,0,0,1-.215.241l-.43.4a1.23,1.23,0,0,1-.125.129l-.243.2-1.062.963-.492.408c.026-.2.045-.408.06-.645l.088-1.152a10.76,10.76,0,0,1,.11-1.231L47,60.966a.168.168,0,0,1,.032-.086.142.142,0,0,1,.084-.073.55.55,0,0,1,.3.013,3.662,3.662,0,0,1,.451.161c.013-.019.058-.125.148-.3l-.26-.142c-.09-.03-.215-.082-.383-.157a4.368,4.368,0,0,1-.447-.215,11.758,11.758,0,0,1-1.15-.673c-.028-.013-.1-.06-.215-.129l-.17.316Zm6.589,3.838c.045.049.075.1.118.14a2.481,2.481,0,0,1,.271.365c.024.039.052.08.064.1a.2.2,0,0,1,.043.131.807.807,0,0,0-.052.064l-.344.374-.335.32-.453.471-.342.318L50.01,66.976l-.086.086c-.086.082-.142.138-.17.17a.86.86,0,0,1-.249.176,2.407,2.407,0,0,1-.5-.333,2.556,2.556,0,0,0-.254-.193l-.215.215.359.344.118.123c.357.327.645.6.875.845.456.471.845.883,1.15,1.234.445.5.726.8.827.913l.305.3.387-.273.66-.43.114-.064a1.13,1.13,0,0,1,.138-.11,1.1,1.1,0,0,0-.1-.095,1.019,1.019,0,0,0-.153-.146,2.087,2.087,0,0,1-.873.215,1.008,1.008,0,0,1-.539-.163,4.914,4.914,0,0,1-.735-.645,3.286,3.286,0,0,1-.658-.8.215.215,0,0,1,.073-.234l.645-.608c.163-.153.357-.337.585-.565a1.38,1.38,0,0,1,.1-.1c.163.133.385.35.675.645a3.794,3.794,0,0,1,.4.458.305.305,0,0,1,.032.2,1.761,1.761,0,0,1-.245.43,2.266,2.266,0,0,0-.148.215l.2.215.062-.058c.06-.06.148-.144.249-.26a2.477,2.477,0,0,1,.249-.258c.054-.043.088-.084.144-.131s.2-.185.4-.383c.09-.088.226-.215.391-.4l-.165-.168-.047-.041a3.907,3.907,0,0,1-.531.316.408.408,0,0,1-.215.03.934.934,0,0,1-.327-.215c-.15-.135-.408-.378-.741-.729a1.745,1.745,0,0,1-.116-.138l.37-.357.5-.471c.335-.329.531-.514.578-.565.187.185.4.4.632.645.2.215.389.413.55.608.092.118.146.178.161.2a1.152,1.152,0,0,1,.161.215,1.868,1.868,0,0,1-.088.451l-.1.327c-.045.11-.082.189-.105.245.041.054.077.088.088.107l.125.116a.583.583,0,0,0,.056-.049l.118-.123.61-.593a.288.288,0,0,0,.1-.2,4.2,4.2,0,0,0-.466-.574L54.863,66c-.344-.361-.733-.744-1.18-1.169-.294-.284-.471-.458-.537-.531a5.158,5.158,0,0,1-.494-.572c-.064-.095-.155-.2-.258-.322Zm.959,8.214a.859.859,0,0,0-.125.067l.092.159a4.44,4.44,0,0,0,.215.41l.29.492c.013.028.037.075.071.14s.172.43.385.971l.077.153.043.088a1.944,1.944,0,0,0,.288-.118,3.841,3.841,0,0,0-.107-.565,1,1,0,0,1-.039-.318L55,73l.808-.419a2.008,2.008,0,0,1,.26-.112c.058.112.1.2.131.247a.81.81,0,0,1,.11.417,1.881,1.881,0,0,1-.284.46c-.391.518-.681.885-.86,1.111-.067.086-.172.228-.3.43l-.183.232a1.219,1.219,0,0,0,.092.159,2.569,2.569,0,0,1,.144.249l.183.372c.054.114.1.215.131.3l.069.148.069.2.047.073.039.1a.275.275,0,0,0,.09-.039.372.372,0,0,0,.1-.073,1.257,1.257,0,0,0,0-.314,1.191,1.191,0,0,1,0-.35,3.7,3.7,0,0,1,.3-.507l.671-1.055a4.885,4.885,0,0,0,.249-.43c.049-.084.092-.15.131-.215a1.554,1.554,0,0,0,.817.512,1.2,1.2,0,0,0,.789-.088,1.29,1.29,0,0,0,.668-.877,1.96,1.96,0,0,0-.2-1.391,9.823,9.823,0,0,0-.488-.894l-.247-.447-.1-.191c-.011-.015-.047-.116-.125-.3a2.594,2.594,0,0,0-.172-.335,1.994,1.994,0,0,0-.193-.331H57.7l-.215.112c.021.073.08.215.159.43l.058.236c-.138.077-.462.245-.971.494-.234.114-.481.232-.752.357l-.2.088-.346.176-.447.215-.812.406c-.215.1-.325.155-.359.168a1.055,1.055,0,0,1-.123.026,2.076,2.076,0,0,1-.245-.3.758.758,0,0,0-.215-.245A.533.533,0,0,0,53.1,71.828Zm3.318.451a2.347,2.347,0,0,0,.114.262,1.505,1.505,0,0,0,.66.784.821.821,0,0,0,.731-.032,1.573,1.573,0,0,0,.4-.273.874.874,0,0,0,.234-.309,1.09,1.09,0,0,0,.047-.466,2.2,2.2,0,0,0-.215-.546,1.391,1.391,0,0,0-.165-.279l-.069.024-.488.249-.314.138-.4.2c-.114.047-.26.118-.445.2Zm4.823,6.673a3.239,3.239,0,0,0-.043-.587,1.9,1.9,0,0,0-.714-1.27,1.5,1.5,0,0,0-1.173-.245,1.633,1.633,0,0,0-.634.292,1.457,1.457,0,0,0-.466.563,4.41,4.41,0,0,0-.267,1.12,3.632,3.632,0,0,1-.239.993.8.8,0,0,1-.505.391.83.83,0,0,1-.488-.075.86.86,0,0,1-.38-.361,1.487,1.487,0,0,1-.2-.464,1.275,1.275,0,0,1,0-.469.963.963,0,0,1,.127-.4,1.6,1.6,0,0,1,.277-.342,5.092,5.092,0,0,1,.5-.355l-.077-.372-.157.03-.368.075c-.333.08-.516.12-.55.122l-.043.013c-.037.017-.064.032-.067.052a.81.81,0,0,0-.052.275l-.052.514a3.757,3.757,0,0,0,.052.692,2.452,2.452,0,0,0,.215.683,1.988,1.988,0,0,0,.337.481,2.649,2.649,0,0,0,.361.325,1.16,1.16,0,0,0,.415.172,2.046,2.046,0,0,0,.776,0,1.719,1.719,0,0,0,.559-.2,1.642,1.642,0,0,0,.419-.419,1.782,1.782,0,0,0,.245-.6,3.532,3.532,0,0,0,.11-.645,2.339,2.339,0,0,1,.269-1.051.754.754,0,0,1,.458-.329.679.679,0,0,1,.552.131.946.946,0,0,1,.329.587.986.986,0,0,1-.191.789,2.149,2.149,0,0,1-.645.492V79.6l.043.3.017.037a.861.861,0,0,0,.155,0,5.53,5.53,0,0,0,.645-.174c.178-.062.314-.114.4-.155A5.353,5.353,0,0,0,61.246,78.953Zm-5.063,3.336c.026.277.032.49.032.645l-.024.726c-.039.327-.058.511-.06.548s-.019.09-.019.1v.234c.062,0,.107.013.138.013a1.353,1.353,0,0,0,.2-.013,2.078,2.078,0,0,0,.039-.254c.019-.135.045-.294.084-.458h.251l.823.011.546.017,1.09.013c.247,0,.6.015,1.075.034a2.257,2.257,0,0,1,.282,0,1.266,1.266,0,0,1,.312.028,2.855,2.855,0,0,1,.105.35,2.162,2.162,0,0,0,.1.376c.069,0,.129.013.176.013h.127c0-.052,0-.183-.015-.378-.021-.361-.021-.617-.021-.776a2.271,2.271,0,0,1,.017-.273l.064-1.171h-.359a.614.614,0,0,0-.015.148,1.638,1.638,0,0,1-.105.546.891.891,0,0,1-.138.026h-.643l-.215-.015h-.552l-.836-.045h-.215l-.937-.028h-.484a.705.705,0,0,1-.348-.082,1.582,1.582,0,0,1-.131-.4c-.028-.129-.049-.215-.064-.273h-.3a2.622,2.622,0,0,0,.015.337ZM61.2,86.9a7.936,7.936,0,0,1-.948-.619.971.971,0,0,0-.215.2.407.407,0,0,0,.084.181,2.551,2.551,0,0,1,.4.645,1.214,1.214,0,0,1-.062.518,7.043,7.043,0,0,1-.239.8.067.067,0,0,1-.032.047.073.073,0,0,1-.062.013,6.945,6.945,0,0,1-.754-.176l-1.5-.387c-.7-.183-1.193-.325-1.5-.43a.525.525,0,0,1-.187-.1,3.742,3.742,0,0,1-.026-.623.567.567,0,0,0-.075-.372h-.034l-.092-.024a.733.733,0,0,1-.092-.021c-.015.049-.037.146-.064.3-.071.393-.12.634-.138.714-.135.5-.234.845-.307,1.032a6.512,6.512,0,0,0-.215.688.8.8,0,0,1-.037.146c.047.017.077.032.1.039a1.491,1.491,0,0,0,.174.021A1.518,1.518,0,0,0,55.5,89.3a1.587,1.587,0,0,0,.138-.275,1.675,1.675,0,0,1,.118-.215,1.118,1.118,0,0,1,.43.062l.518.138,1.262.327,1.163.314.542.144a1.431,1.431,0,0,1,.247.086c-.017.11-.045.215-.062.284a8.355,8.355,0,0,1-.245.83.232.232,0,0,1-.1.1,2.149,2.149,0,0,1-.365.067,2.332,2.332,0,0,0-.5.112,1.5,1.5,0,0,0-.017.3,1.1,1.1,0,0,0,.181.067l.2.056.348.1c.376.092.645.163.83.215.015-.052.024-.09.034-.118l.047-.174a.958.958,0,0,0-.1-.069.845.845,0,0,1-.161-.159l.03-.247L60.365,90l.241-.894.131-.486.013-.075c.043-.161.092-.342.148-.548.084-.327.138-.505.15-.542a1.983,1.983,0,0,1,.3-.1.286.286,0,0,0,.077-.021l.067-.245c-.069-.043-.163-.1-.3-.183Zm-2.242,6.957a.429.429,0,0,0-.049-.034.288.288,0,0,0-.062-.021c-.161.163-.249.249-.277.269a.52.52,0,0,1-.155.075l-.43.03-.714-.013-1.468.011a1.549,1.549,0,0,0-.245.015,1,1,0,0,1-.645-.1l-.08-.049-.215-.142c-.135-.077-.368-.241-.722-.464l-.2-.131a.5.5,0,0,1,.021-.1l.282-.72-.107-.073a.76.76,0,0,0-.11-.062l-.155.234a1.832,1.832,0,0,0-.148.271.739.739,0,0,1-.086.165l-.181.286-.249.389-.174.247-.271.348-.271.393a1.027,1.027,0,0,0,.1.067.407.407,0,0,0,.08.058.075.075,0,0,0,.084.015,1.44,1.44,0,0,0,.294-.333c.1-.1.148-.168.183-.2a.293.293,0,0,1,.062-.013l.89.563a1.333,1.333,0,0,1,.176.127l.095.058.3.2.105.071a.43.43,0,0,1,.084.133c.084.159.215.5.415,1.006l.378.888a2.837,2.837,0,0,1,.3.787,1.317,1.317,0,0,1-.131.477l-.015.054.256.165a.491.491,0,0,1,.056-.1c.073-.127.12-.226.161-.309l.034-.058.107-.168a.431.431,0,0,1,.064-.077l.494-.686a2.268,2.268,0,0,0-.266-.14l-.09.095a1.073,1.073,0,0,1-.11.118c-.064.086-.092.133-.11.14a.344.344,0,0,1-.09.058.681.681,0,0,1-.073-.028.567.567,0,0,1-.107-.157l-.327-.634-.013-.03c-.165-.374-.282-.671-.359-.892l-.279-.688a2.024,2.024,0,0,1,.247,0H55.4a1.281,1.281,0,0,1,.133,0,.532.532,0,0,1,.084,0,4.415,4.415,0,0,0,.447,0h.43a6.064,6.064,0,0,1,1.075.013l.045.039v.028l-.118.258-.069.168a.887.887,0,0,0-.071.215l.17.118a.63.63,0,0,0,.082.026l.019-.026a.313.313,0,0,0,.024-.058,5.3,5.3,0,0,1,.316-.561c.114-.172.262-.391.473-.664a3.129,3.129,0,0,1,.215-.264l.019-.043a1.114,1.114,0,0,1,.086-.11l.028-.03a1.991,1.991,0,0,0,.254-.447q-.045-.025-.088-.054Z" transform="translate(-7.451 -45.393)" fill="#fff" fill-rule="evenodd"/>
    <path id="Path_2248" data-name="Path 2248" d="M305.541,37.571a10.25,10.25,0,0,1-1.573.679,9.353,9.353,0,0,1-1.638.385,12.467,12.467,0,0,1-1.8.12,10.844,10.844,0,0,1-4-.733,10.592,10.592,0,0,1-3.262-2,9.241,9.241,0,0,1-2.194-2.97,8.64,8.64,0,0,1,0-7.26,9.316,9.316,0,0,1,2.2-2.957,10.594,10.594,0,0,1,3.262-2,10.845,10.845,0,0,1,4-.733,12.65,12.65,0,0,1,1.691.107,10.913,10.913,0,0,1,1.532.318,7.788,7.788,0,0,1,1.466.587q.718.374,1.492.879l-2.908,5.061a4.3,4.3,0,0,0-1.491-.986,4.815,4.815,0,0,0-1.838-.372,4.15,4.15,0,0,0-1.558.292,4.241,4.241,0,0,0-1.29.8,3.7,3.7,0,0,0-.879,1.186,3.452,3.452,0,0,0,0,2.9,3.713,3.713,0,0,0,.879,1.184,4.234,4.234,0,0,0,2.876,1.092,4.339,4.339,0,0,0,1.771-.359A6.9,6.9,0,0,0,304,31.644l3.142,4.928a14.971,14.971,0,0,1-1.6,1Z" transform="translate(-226.323 -15.787)" fill="#fff"/>
    <path id="Path_2249" data-name="Path 2249" d="M358.673,25.836a9.337,9.337,0,1,1,0,7.271,9.355,9.355,0,0,1,0-7.26Zm5.158,5.089a3.732,3.732,0,1,0,0-2.9A3.746,3.746,0,0,0,363.831,30.925Z" transform="translate(-279.442 -15.827)" fill="#fff"/>
    <path id="Path_2250" data-name="Path 2250" d="M290.43,104.7h3.131l3.267,4.561V104.7h3.718v11.838h-3.14l-3.25-4.543v4.543H290.43Z" transform="translate(-226.441 -82.198)" fill="#fff"/>
    <path id="Path_2251" data-name="Path 2251" d="M341.065,104.7l2.005,5.158,2.025-5.158h4.135l-4.614,11.838h-3.071L336.93,104.7Z" transform="translate(-262.948 -82.198)" fill="#fff"/>
    <path id="Path_2252" data-name="Path 2252" d="M388.617,107.151a6.307,6.307,0,0,1,1.332-1.971,6.192,6.192,0,1,1-1.332,1.971Zm3.439,3.389a2.506,2.506,0,0,0,.531.791,2.552,2.552,0,0,0,.791.533,2.515,2.515,0,0,0,1.934,0,2.58,2.58,0,0,0,.791-.533,2.491,2.491,0,0,0,.531-2.725,2.485,2.485,0,1,0-4.578,1.934Z" transform="translate(-303.143 -81.146)" fill="#fff"/>
    <path id="Path_2253" data-name="Path 2253" d="M303.439,171.688a7.9,7.9,0,0,1-1.216.524,7.227,7.227,0,0,1-1.266.3,9.772,9.772,0,0,1-1.391.092,8.4,8.4,0,0,1-3.088-.565,8.232,8.232,0,0,1-2.523-1.545,7.172,7.172,0,0,1-1.7-2.3,6.662,6.662,0,0,1,0-5.612,7.21,7.21,0,0,1,1.7-2.287,8.232,8.232,0,0,1,2.523-1.545,8.4,8.4,0,0,1,3.088-.565,9.971,9.971,0,0,1,1.309.082,8.638,8.638,0,0,1,1.184.247,6.17,6.17,0,0,1,1.133.453,13.2,13.2,0,0,1,1.152.679l-2.244,3.914a3.329,3.329,0,0,0-1.154-.763,3.712,3.712,0,0,0-1.421-.288,3.224,3.224,0,0,0-1.2.215,3.341,3.341,0,0,0-1,.619,2.843,2.843,0,0,0-.679.916,2.674,2.674,0,0,0,0,2.246,2.844,2.844,0,0,0,.679.916,3.271,3.271,0,0,0,2.224.845,3.353,3.353,0,0,0,1.369-.277,5.386,5.386,0,0,0,1.328-.9l2.431,3.808A11.482,11.482,0,0,1,303.439,171.688Z" transform="translate(-227.389 -124.191)" fill="#fff"/>
    <path id="Path_2254" data-name="Path 2254" d="M353.672,159.71h3.286l5.21,13.735h-4.315l-.453-1.236h-4.161l-.451,1.236H348.46Zm2.579,9.474-.926-2.409-.926,2.409Z" transform="translate(-272 -125.385)" fill="#fff"/>
    <path id="Path_2255" data-name="Path 2255" d="M403.024,163.293H400.49V159.71h9.618v3.583h-2.553v10.153h-4.53Z" transform="translate(-312.847 -125.385)" fill="#fff"/>
    <path id="Path_2256" data-name="Path 2256" d="M289.86,222.81h4.868v14.369H289.86Z" transform="translate(-225.994 -174.924)" fill="#fff"/>
    <path id="Path_2257" data-name="Path 2257" d="M315.841,225.833a7.69,7.69,0,0,1,1.616-2.392,7.518,7.518,0,1,1-1.616,2.392Zm4.169,4.114a3.011,3.011,0,0,0,.645.959,3.08,3.08,0,0,0,.959.645,3.017,3.017,0,1,0,0-5.558,3.08,3.08,0,0,0-.959.645,3.017,3.017,0,0,0-.645,3.305Z" transform="translate(-245.927 -173.691)" fill="#fff"/>
    <path id="Path_2258" data-name="Path 2258" d="M388.08,222.81h3.791l3.963,5.536V222.81h4.513v14.369h-3.8l-3.942-5.517v5.515H388.08Z" transform="translate(-303.104 -174.924)" fill="#fff"/>
    <text id="_2021" data-name="2021" transform="translate(69.529 67.231)" fill="#fff" font-size="7" font-family="Poppins-Bold, Poppins" font-weight="700"><tspan x="0" y="0">2021</tspan></text>
  </g>
</svg>
