<svg xmlns="http://www.w3.org/2000/svg" width="43" height="43" viewBox="0 0 43 43">
  <g id="left-arrow" transform="translate(0.473 0)">
    <g id="Ellipse_3" data-name="Ellipse 3" transform="translate(-0.473 0)" fill="none" stroke="#fff" stroke-width="1.5">
      <circle cx="21.5" cy="21.5" r="21.5" stroke="none"/>
      <circle cx="21.5" cy="21.5" r="20.75" fill="none"/>
    </g>
    <g id="Group_816" data-name="Group 816" transform="translate(13.806 15.938)">
      <path id="Path_584" data-name="Path 584" d="M-2475.727,5254h-15.389" transform="translate(2491.117 -5248.487)" fill="none" stroke="#fff" stroke-linecap="round" stroke-width="1.5"/>
      <path id="Path_585" data-name="Path 585" d="M-2632.4,5195.554l-5.562,5.563,5.563,5.563" transform="translate(2637.963 -5195.554)" fill="none" stroke="#fff" stroke-linecap="round" stroke-width="1.5"/>
    </g>
  </g>
</svg>
