<svg xmlns="http://www.w3.org/2000/svg" width="673.061" height="711.461" viewBox="0 0 673.061 711.461">
  <g id="hu_icon" data-name="hu icon" transform="matrix(0.883, 0.469, -0.469, 0.883, 222.174, -24.381)" opacity="0.05">
    <g id="Group_703" data-name="Group 703" transform="translate(0 543.886) rotate(-90)">
      <ellipse id="Ellipse_4" data-name="Ellipse 4" cx="31.528" cy="31.528" rx="31.528" ry="31.528" transform="translate(403.655 19.582)" fill="#5d2468"/>
      <path id="Path_20" data-name="Path 20" d="M16.05,52.269A46.58,46.58,0,0,0,0,61.275,46.675,46.675,0,0,0,12.656,12.7,46.686,46.686,0,0,0,6.276,0,151.973,151.973,0,0,1,62.2,62.473,46.677,46.677,0,0,0,16.05,52.269Z" transform="translate(466.71 23.778)" fill="#5d2468"/>
      <path id="Path_21" data-name="Path 21" d="M0,10.993A46.478,46.478,0,0,0,19.336,9.005,46.558,46.558,0,0,0,35.385,0,46.789,46.789,0,0,0,20.491,33.521,66.582,66.582,0,0,0,0,10.993Z" transform="translate(429.99 86.307)" fill="#5d2468"/>
      <path id="Path_22" data-name="Path 22" d="M75.972,292.944a46.454,46.454,0,0,0-20.493,4.783,65.9,65.9,0,0,0,10.8-36.2A66.277,66.277,0,0,0,0,195.251V86.632A66.276,66.276,0,0,0,66.277,20.355c0-1.763-.129-3.5-.264-5.224a46.708,46.708,0,0,0,53.015,18.194A46.634,46.634,0,0,0,149.956,0a152.521,152.521,0,0,1,1.4,20.355A151.1,151.1,0,0,1,91.452,140.942a151.094,151.094,0,0,1,59.9,120.586A150.666,150.666,0,0,1,120.8,352.705a46.642,46.642,0,0,0-44.83-59.762Z" transform="translate(392.529 131.601)" fill="#5d2468"/>
      <ellipse id="Ellipse_5" data-name="Ellipse 5" cx="31.528" cy="31.528" rx="31.528" ry="31.528" transform="translate(474.372 81.9) rotate(13.283)" fill="#5d2468"/>
      <g id="Group_26" data-name="Group 26" transform="translate(0 0)">
        <path id="Path_23" data-name="Path 23" d="M32.107,0a46.8,46.8,0,0,0-1.469,11.453A46.875,46.875,0,0,0,77.514,58.329a46.61,46.61,0,0,0,21.021-5.02,66.146,66.146,0,0,0,52.821,106.076V169.52A181.825,181.825,0,0,0,51.033,206.44,151.227,151.227,0,0,1,32.107,0Z" transform="translate(0 58.206)" fill="#5d2468"/>
        <path id="Path_24" data-name="Path 24" d="M80.714,85.123A65.814,65.814,0,0,0,46.4,94.782a46.605,46.605,0,0,0,7.345-25.123A46.875,46.875,0,0,0,6.872,22.784,47,47,0,0,0,0,23.343,151.325,151.325,0,0,1,232.071,151.358c0,.2-.015.4-.015.6H146.919c0-.2.03-.4.03-.6A66.234,66.234,0,0,0,80.714,85.123Z" transform="translate(70.642 0)" fill="#5d2468"/>
      </g>
      <ellipse id="Ellipse_6" data-name="Ellipse 6" cx="31.528" cy="31.528" rx="31.528" ry="31.528" transform="translate(444.766 433.617) rotate(13.282)" fill="#5d2468"/>
      <ellipse id="Ellipse_7" data-name="Ellipse 7" cx="31.528" cy="31.528" rx="31.528" ry="31.528" transform="translate(77.515 25.072) rotate(45)" fill="#5d2468"/>
      <path id="Path_25" data-name="Path 25" d="M59.519,30.362A150.545,150.545,0,0,1,150.4,0c.321,0,.635.024.954.026V84.36a66.276,66.276,0,1,0,66.277,66.276H326.252a66.177,66.177,0,0,0,100.894,56.439,46.6,46.6,0,0,0,53.127,66.85,151.265,151.265,0,0,1-208.33-31.838A151.339,151.339,0,1,1,59.519,30.362Z" transform="translate(0 242.491)" fill="#5d2468"/>
      <path id="Path_26" data-name="Path 26" d="M0,59.816c.024.03.05.06.073.09A151.256,151.256,0,0,1,155.885,4.166a46.636,46.636,0,0,0-22.468,82.17,66.2,66.2,0,0,0-79.035,65.021H0Z" transform="translate(271.87 0.599)" fill="#5d2468"/>
    </g>
  </g>
</svg>
