<svg xmlns="http://www.w3.org/2000/svg" width="560.5" height="636.908" viewBox="0 0 560.5 636.908">
  <g id="icon-for-menu" transform="translate(-799.254 -32.407)">
    <g id="Group_950" data-name="Group 950" transform="matrix(0.883, 0.469, -0.469, 0.883, 1000.277, 12.968)">
      <g id="Group_703" data-name="Group 703" transform="translate(0 433.62) rotate(-90)">
        <ellipse id="Ellipse_4" data-name="Ellipse 4" cx="25.136" cy="25.136" rx="25.136" ry="25.136" transform="translate(321.819 15.612)" fill="#6e3f77"/>
        <path id="Path_20" data-name="Path 20" d="M12.8,41.672A37.136,37.136,0,0,0,0,48.852,37.212,37.212,0,0,0,10.09,10.124,37.221,37.221,0,0,0,5,0a121.163,121.163,0,0,1,44.59,49.808A37.214,37.214,0,0,0,12.8,41.672Z" transform="translate(372.091 18.957)" fill="#6e3f77"/>
        <path id="Path_21" data-name="Path 21" d="M0,8.765A37.055,37.055,0,0,0,15.416,7.179,37.119,37.119,0,0,0,28.211,0,37.3,37.3,0,0,0,16.336,26.725,53.083,53.083,0,0,0,0,8.765Z" transform="translate(342.815 68.81)" fill="#6e3f77"/>
        <path id="Path_22" data-name="Path 22" d="M60.569,233.553a37.035,37.035,0,0,0-16.339,3.813,52.54,52.54,0,0,0,8.609-28.861A52.84,52.84,0,0,0,0,155.667v-86.6a52.84,52.84,0,0,0,52.84-52.84c0-1.406-.1-2.787-.21-4.165A37.239,37.239,0,0,0,94.9,26.569,37.18,37.18,0,0,0,119.554,0a121.6,121.6,0,0,1,1.117,16.229,120.463,120.463,0,0,1-47.76,96.139,120.462,120.462,0,0,1,47.76,96.139A120.121,120.121,0,0,1,96.311,281.2a37.186,37.186,0,0,0-35.741-47.646Z" transform="translate(312.949 104.92)" fill="#6e3f77"/>
        <ellipse id="Ellipse_5" data-name="Ellipse 5" cx="25.136" cy="25.136" rx="25.136" ry="25.136" transform="translate(378.2 65.296) rotate(13.283)" fill="#6e3f77"/>
        <g id="Group_26" data-name="Group 26" transform="translate(0 0)">
          <path id="Path_23" data-name="Path 23" d="M25.6,0a37.311,37.311,0,0,0-1.171,9.131A37.372,37.372,0,0,0,61.8,46.5a37.161,37.161,0,0,0,16.759-4,52.736,52.736,0,0,0,42.113,84.571v8.08a144.963,144.963,0,0,0-79.984,29.435A120.568,120.568,0,0,1,25.6,0Z" transform="translate(0 46.405)" fill="#6e3f77"/>
          <path id="Path_24" data-name="Path 24" d="M64.351,67.866A52.471,52.471,0,0,0,37,75.566a37.157,37.157,0,0,0,5.856-20.03A37.372,37.372,0,0,0,5.479,18.165,37.473,37.473,0,0,0,0,18.611,120.646,120.646,0,0,1,185.022,120.672c0,.159-.012.317-.012.477H117.133c0-.161.024-.317.024-.477A52.806,52.806,0,0,0,64.351,67.866Z" transform="translate(56.321 0)" fill="#6e3f77"/>
        </g>
        <ellipse id="Ellipse_6" data-name="Ellipse 6" cx="25.136" cy="25.136" rx="25.136" ry="25.136" transform="translate(354.596 345.707) rotate(13.282)" fill="#6e3f77"/>
        <ellipse id="Ellipse_7" data-name="Ellipse 7" cx="25.136" cy="25.136" rx="25.136" ry="25.136" transform="translate(61.8 19.989) rotate(45)" fill="#6e3f77"/>
        <path id="Path_25" data-name="Path 25" d="M47.453,24.207A120.024,120.024,0,0,1,119.91,0c.256,0,.506.019.761.021V67.257a52.84,52.84,0,1,0,52.84,52.84h86.6a52.76,52.76,0,0,0,80.439,45,37.153,37.153,0,0,0,42.356,53.3A120.6,120.6,0,0,1,216.81,193.007,120.657,120.657,0,1,1,47.453,24.207Z" transform="translate(0 193.329)" fill="#6e3f77"/>
        <path id="Path_26" data-name="Path 26" d="M0,47.689l.059.072A120.591,120.591,0,0,1,124.281,3.321a37.181,37.181,0,0,0-17.913,65.511,52.779,52.779,0,0,0-63.011,51.839H0Z" transform="translate(216.752 0.478)" fill="#6e3f77"/>
      </g>
    </g>
    <g id="Group_1263" data-name="Group 1263" transform="matrix(-0.883, 0.469, -0.469, -0.883, 1053.844, 620.899)">
      <g id="Group_703-2" data-name="Group 703" transform="translate(103.128 0) rotate(90)">
        <ellipse id="Ellipse_4-2" data-name="Ellipse 4" cx="5.972" cy="5.972" rx="5.972" ry="5.972" transform="translate(76.454 87.476)" fill="#6e3f77"/>
        <path id="Path_20-2" data-name="Path 20" d="M3.04,1.933A8.822,8.822,0,0,1,0,.227a8.841,8.841,0,0,1,2.4,9.2,8.843,8.843,0,0,1-1.208,2.405A28.784,28.784,0,0,0,11.782,0,8.841,8.841,0,0,1,3.04,1.933Z" transform="translate(88.397 86.792)" fill="#6e3f77"/>
        <path id="Path_21-2" data-name="Path 21" d="M0,4.267A8.827,8.827,0,0,1,6.7,6.349,8.862,8.862,0,0,1,3.881,0,12.611,12.611,0,0,1,0,4.267Z" transform="translate(81.442 80.432)" fill="#6e3f77"/>
        <path id="Path_22-2" data-name="Path 22" d="M14.389,11.319a8.8,8.8,0,0,1-3.882-.906,12.482,12.482,0,0,1,2.045,6.856A12.553,12.553,0,0,1,0,29.823V50.4A12.553,12.553,0,0,1,12.553,62.949c0,.334-.024.662-.05.989A8.837,8.837,0,0,1,28.4,66.8a28.889,28.889,0,0,0,.265-3.855,28.618,28.618,0,0,0-11.346-22.84A28.618,28.618,0,0,0,28.668,17.27,28.537,28.537,0,0,0,22.88,0a8.834,8.834,0,0,1-8.491,11.319Z" transform="translate(74.347 11.398)" fill="#6e3f77"/>
        <ellipse id="Ellipse_5-2" data-name="Ellipse 5" cx="5.972" cy="5.972" rx="5.972" ry="5.972" transform="translate(87.105 75.992) rotate(-13.283)" fill="#6e3f77"/>
        <g id="Group_26-2" data-name="Group 26" transform="translate(0 53.003)">
          <path id="Path_23-2" data-name="Path 23" d="M6.081,39.1A8.862,8.862,0,0,1,18.663,29a12.528,12.528,0,0,1,10-20.091V6.993A34.439,34.439,0,0,1,9.666,0,28.643,28.643,0,0,0,6.081,39.1Z" transform="translate(0 0)" fill="#6e3f77"/>
          <path id="Path_24-2" data-name="Path 24" d="M15.288,12.658a12.466,12.466,0,0,1-6.5-1.829,8.827,8.827,0,0,1,1.391,4.758A8.878,8.878,0,0,1,1.3,24.466,8.9,8.9,0,0,1,0,24.36a28.523,28.523,0,0,0,15.288,4.421A28.668,28.668,0,0,0,43.955.113c0-.038,0-.075,0-.113H27.827c0,.038.006.075.006.113A12.545,12.545,0,0,1,15.288,12.658Z" transform="translate(13.38 21.344)" fill="#6e3f77"/>
        </g>
        <ellipse id="Ellipse_6-2" data-name="Ellipse 6" cx="5.972" cy="5.972" rx="5.972" ry="5.972" transform="translate(81.497 9.375) rotate(-13.282)" fill="#6e3f77"/>
        <ellipse id="Ellipse_7-2" data-name="Ellipse 7" cx="5.972" cy="5.972" rx="5.972" ry="5.972" transform="translate(6.237 89.934) rotate(-45)" fill="#6e3f77"/>
        <path id="Path_25-2" data-name="Path 25" d="M11.273,51.448A28.514,28.514,0,0,0,28.487,57.2c.061,0,.12,0,.181,0V41.221A12.553,12.553,0,1,1,41.221,28.668H61.794A12.534,12.534,0,0,1,80.9,17.978,8.826,8.826,0,0,1,90.966,5.316a28.65,28.65,0,0,0-39.459,6.03,28.664,28.664,0,1,0-40.234,40.1Z" transform="translate(0 0)" fill="#6e3f77"/>
        <path id="Path_26-2" data-name="Path 26" d="M0,17.338l.014-.017a28.618,28.618,0,0,0,22.84,11.347,28.717,28.717,0,0,0,6.672-.789A8.833,8.833,0,0,1,25.27,12.315a12.593,12.593,0,0,1-2.416.238A12.553,12.553,0,0,1,10.3,0H0Z" transform="translate(51.494 74.347)" fill="#6e3f77"/>
      </g>
    </g>
    <g id="Group_1270" data-name="Group 1270" transform="matrix(-0.883, 0.469, -0.469, -0.883, 859.512, 185.211)">
      <g id="Group_703-3" data-name="Group 703" transform="translate(46.458 0) rotate(90)">
        <ellipse id="Ellipse_4-3" data-name="Ellipse 4" cx="2.69" cy="2.69" rx="2.69" ry="2.69" transform="translate(34.442 39.407)" fill="#6e3f77"/>
        <path id="Path_20-3" data-name="Path 20" d="M1.369.871A3.974,3.974,0,0,1,0,.1,3.983,3.983,0,0,1,1.08,4.247,3.983,3.983,0,0,1,.536,5.331,12.967,12.967,0,0,0,5.308,0,3.983,3.983,0,0,1,1.369.871Z" transform="translate(39.822 39.098)" fill="#6e3f77"/>
        <path id="Path_21-3" data-name="Path 21" d="M0,1.922a3.976,3.976,0,0,1,3.019.938A3.992,3.992,0,0,1,1.748,0,5.681,5.681,0,0,1,0,1.922Z" transform="translate(36.689 36.234)" fill="#6e3f77"/>
        <path id="Path_22-3" data-name="Path 22" d="M6.482,5.1a3.964,3.964,0,0,1-1.749-.408A5.623,5.623,0,0,1,5.655,7.78,5.655,5.655,0,0,1,0,13.435V22.7a5.655,5.655,0,0,1,5.655,5.655c0,.15-.011.3-.022.446a3.981,3.981,0,0,1,7.162,1.291,13.014,13.014,0,0,0,.12-1.737A12.892,12.892,0,0,0,7.8,18.069,12.892,12.892,0,0,0,12.914,7.78,12.856,12.856,0,0,0,10.307,0,3.98,3.98,0,0,1,6.482,5.1Z" transform="translate(33.492 5.135)" fill="#6e3f77"/>
        <ellipse id="Ellipse_5-3" data-name="Ellipse 5" cx="2.69" cy="2.69" rx="2.69" ry="2.69" transform="translate(39.239 34.233) rotate(-13.283)" fill="#6e3f77"/>
        <g id="Group_26-3" data-name="Group 26" transform="translate(0 23.877)">
          <path id="Path_23-3" data-name="Path 23" d="M2.74,17.614a3.992,3.992,0,0,1,5.668-4.549,5.644,5.644,0,0,1,4.507-9.051V3.15A15.514,15.514,0,0,1,4.354,0,12.9,12.9,0,0,0,2.74,17.614Z" transform="translate(0 0)" fill="#6e3f77"/>
          <path id="Path_24-3" data-name="Path 24" d="M6.887,5.7a5.616,5.616,0,0,1-2.928-.824,3.977,3.977,0,0,1,.627,2.144,4,4,0,0,1-4,4A4.01,4.01,0,0,1,0,10.974a12.849,12.849,0,0,0,6.887,1.992A12.914,12.914,0,0,0,19.8.051c0-.017,0-.034,0-.051H12.536c0,.017,0,.034,0,.051A5.651,5.651,0,0,1,6.887,5.7Z" transform="translate(6.028 9.615)" fill="#6e3f77"/>
        </g>
        <ellipse id="Ellipse_6-3" data-name="Ellipse 6" cx="2.69" cy="2.69" rx="2.69" ry="2.69" transform="translate(36.713 4.223) rotate(-13.282)" fill="#6e3f77"/>
        <ellipse id="Ellipse_7-3" data-name="Ellipse 7" cx="2.69" cy="2.69" rx="2.69" ry="2.69" transform="translate(2.81 40.514) rotate(-45)" fill="#6e3f77"/>
        <path id="Path_25-3" data-name="Path 25" d="M5.078,23.177a12.845,12.845,0,0,0,7.755,2.591l.081,0v-7.2a5.655,5.655,0,1,1,5.655-5.655h9.268A5.646,5.646,0,0,1,36.446,8.1a3.976,3.976,0,0,1,4.533-5.7A12.907,12.907,0,0,0,23.2,5.111,12.913,12.913,0,1,0,5.078,23.177Z" transform="translate(0 0)" fill="#6e3f77"/>
        <path id="Path_26-3" data-name="Path 26" d="M0,7.811.006,7.8A12.892,12.892,0,0,0,10.3,12.914a12.937,12.937,0,0,0,3.006-.355,3.979,3.979,0,0,1-1.917-7.011,5.673,5.673,0,0,1-1.089.107A5.655,5.655,0,0,1,4.64,0H0Z" transform="translate(23.197 33.492)" fill="#6e3f77"/>
      </g>
    </g>
  </g>
</svg>
