<svg xmlns="http://www.w3.org/2000/svg" width="14.2" height="25.573" viewBox="0 0 14.2 25.573">
  <path id="left-arrow" d="M-7394.339,11480.051l-11.372,11.372,11.372,11.373" transform="translate(7407.125 -11478.637)" fill="none" stroke="#5c2367" stroke-linecap="round" stroke-width="2"/>
</svg>
